(footprint "AST 021-03" (version 20211014) (generator pcbnew)
  (layer "F.Cu")
  (tedit 604E3CA6)
  (descr "AST 021-03 3-pin spring loaded terminal, 2.5-mm pin spacing, 150V 8A")
  (tags "terminal connector spring")
  (fp_text reference "REF**" (at 2.45 -7.2 unlocked) (layer "F.SilkS")
    (effects (font (size 1 1) (thickness 0.16)))
    (tstamp b132e6cc-b8af-4ad5-9b52-3d6c7bf00d35)
  )
  (fp_text value "AST021-03" (at 2.5 -3.1 unlocked) (layer "F.Fab")
    (effects (font (size 0.6 0.6) (thickness 0.1)))
    (tstamp 0b8c6006-071a-44af-aaab-3db782b62841)
  )
  (fp_text user "${REFERENCE}" (at 2.5 3 180) (layer "F.Fab")
    (effects (font (size 1 1) (thickness 0.15)))
    (tstamp dfd566b6-e744-4bc1-8db9-6b74663915fb)
  )
  (fp_line (start 3.1 -6.4) (end 3.1 -5.9) (layer "F.SilkS") (width 0.12) (tstamp 115aabad-d138-455c-9be8-afc512467d1c))
  (fp_line (start -0.6 -6.4) (end 0.6 -6.4) (layer "F.SilkS") (width 0.12) (tstamp 17e772bf-826c-4deb-85cd-3af877d21f97))
  (fp_line (start 1.9 -6.4) (end 3.1 -6.4) (layer "F.SilkS") (width 0.12) (tstamp 258c8fc0-e2b5-4f33-98b7-e26c441545e1))
  (fp_line (start -0.6 -6.4) (end -0.6 -5.9) (layer "F.SilkS") (width 0.12) (tstamp 49934c2d-8030-4aac-9f24-d2029d1de557))
  (fp_line (start 6.6 -5.9) (end 6.6 5.6) (layer "F.SilkS") (width 0.12) (tstamp 649ecefc-a687-4b64-b550-b1c0d11beb22))
  (fp_line (start 5.6 -5.9) (end 5.6 -6.4) (layer "F.SilkS") (width 0.12) (tstamp 6fef91e7-61a0-410d-a372-c5fefc21ccb1))
  (fp_line (start 4.4 -6.4) (end 4.4 -5.9) (layer "F.SilkS") (width 0.12) (tstamp 70196e58-fa14-43d6-b715-a3bed975651c))
  (fp_line (start 6.6 5.6) (end -1.6 5.6) (layer "F.SilkS") (width 0.12) (tstamp 7ad03f26-023b-44a4-888a-7eec6c924cf7))
  (fp_line (start 1.9 -6.4) (end 1.9 -5.9) (layer "F.SilkS") (width 0.12) (tstamp b9c88d1e-bd72-4622-ab79-a69a130cbcf5))
  (fp_line (start 4.4 -6.4) (end 5.6 -6.4) (layer "F.SilkS") (width 0.12) (tstamp bb851f58-380c-4642-a817-7f43b150b6d2))
  (fp_line (start -1.3 -5.9) (end 6.6 -5.9) (layer "F.SilkS") (width 0.12) (tstamp bbcf3224-f715-4c84-8b36-6d501de18fd0))
  (fp_line (start -1.6 -5.6) (end -1.3 -5.9) (layer "F.SilkS") (width 0.12) (tstamp bc1a1444-e236-4ebc-a355-570ac66384a5))
  (fp_line (start -1.6 5.6) (end -1.6 -5.6) (layer "F.SilkS") (width 0.12) (tstamp d137f059-6635-4be8-a525-729014eac200))
  (fp_line (start 0.6 -6.4) (end 0.6 -5.9) (layer "F.SilkS") (width 0.12) (tstamp e1c1b5e6-c3ac-49f0-a78e-429a4fce1c25))
  (fp_rect (start -1.75 -6.5) (end 6.75 5.75) (layer "F.CrtYd") (width 0.12) (fill none) (tstamp b35e1996-ddd6-4c64-bd16-6a15755a2ce5))
  (fp_poly (pts
      (xy -1.4 -4.5)
      (xy -0.4 -5.5)
      (xy 6.4 -5.5)
      (xy 6.4 5.4)
      (xy -1.4 5.4)
    ) (layer "F.Fab") (width 0.1) (fill none) (tstamp 87fe370d-1aeb-403e-a7a0-1628b9d71529))
  (pad "1" thru_hole rect (at 0.02 -0.01) (size 2 2) (drill 1.3) (layers *.Cu *.Mask) (tstamp 9da88655-92a8-4b92-9604-5c418c3c3cb3))
  (pad "2" thru_hole circle (at 2.5 0) (size 2 2) (drill 1.3) (layers *.Cu *.Mask) (tstamp 695f025e-4fd8-4b3c-99d9-a6f8f87a60e6))
  (pad "3" thru_hole circle (at 5 0) (size 2 2) (drill 1.3) (layers *.Cu *.Mask) (tstamp b0cee38c-7089-4949-874e-cc575e816d21))
)
