(footprint "PinHeader_2x10_P2.54mm_Vertical_Key_Pin20" (version 20221018) (generator pcbnew)
  (layer "F.Cu")
  (descr "Through hole straight pin header, 2x10, 2.54mm pitch, double rows")
  (tags "Through hole pin header THT 2x10 2.54mm double row")
  (attr through_hole)
  (fp_text reference "REF**" (at 1.27 -2.33) (layer "F.SilkS")
      (effects (font (size 1 1) (thickness 0.15)))
    (tstamp 5776ae25-1083-493f-b20d-d0e11846a693)
  )
  (fp_text value "PinHeader_2x10_P2.54mm_Vertical_Key_Pin20" (at 1.27 25.19) (layer "F.Fab")
      (effects (font (size 1 1) (thickness 0.15)))
    (tstamp f7258ccf-ec0f-4bc8-9258-728d424dca5c)
  )
  (fp_text user "${REFERENCE}" (at 1.27 11.43 90) (layer "F.Fab")
      (effects (font (size 1 1) (thickness 0.15)))
    (tstamp 3309e72f-ba59-46db-9cf6-e8e6c6b09859)
  )
  (fp_line (start -1.33 -1.33) (end 0 -1.33)
    (stroke (width 0.12) (type solid)) (layer "F.SilkS") (tstamp 8543e2b6-3429-4419-8cd9-816a9a48061a))
  (fp_line (start -1.33 0) (end -1.33 -1.33)
    (stroke (width 0.12) (type solid)) (layer "F.SilkS") (tstamp 330e0316-c170-4979-b3b3-88a550dfd5a9))
  (fp_line (start -1.33 1.27) (end -1.33 24.19)
    (stroke (width 0.12) (type solid)) (layer "F.SilkS") (tstamp b4a85490-67e7-4989-8f51-93a06251aad7))
  (fp_line (start -1.33 1.27) (end 1.27 1.27)
    (stroke (width 0.12) (type solid)) (layer "F.SilkS") (tstamp 2f32c1c5-cc18-4bb2-9857-1d510b1c5e40))
  (fp_line (start -1.33 24.19) (end 3.87 24.19)
    (stroke (width 0.12) (type solid)) (layer "F.SilkS") (tstamp 83d8c660-61a2-49d1-ae51-365477b610c9))
  (fp_line (start 1.27 -1.33) (end 3.87 -1.33)
    (stroke (width 0.12) (type solid)) (layer "F.SilkS") (tstamp 478f44a4-0c3d-4a3c-8470-eee49f52a855))
  (fp_line (start 1.27 1.27) (end 1.27 -1.33)
    (stroke (width 0.12) (type solid)) (layer "F.SilkS") (tstamp f98b0729-1e9a-4802-b6ac-7c87ef5a2b8d))
  (fp_line (start 3.87 -1.33) (end 3.87 24.19)
    (stroke (width 0.12) (type solid)) (layer "F.SilkS") (tstamp 19f2d6ce-b3b8-4cd7-b33d-0ced54b2c819))
  (fp_line (start -1.8 -1.8) (end -1.8 24.65)
    (stroke (width 0.05) (type solid)) (layer "F.CrtYd") (tstamp 07665161-62d1-49ff-afb7-c4add9868481))
  (fp_line (start -1.8 24.65) (end 4.35 24.65)
    (stroke (width 0.05) (type solid)) (layer "F.CrtYd") (tstamp 37ce0b9a-3de6-4747-b19e-75b8fb558a34))
  (fp_line (start 4.35 -1.8) (end -1.8 -1.8)
    (stroke (width 0.05) (type solid)) (layer "F.CrtYd") (tstamp 43318c52-6dbc-44d8-8e6b-5327e36fae31))
  (fp_line (start 4.35 24.65) (end 4.35 -1.8)
    (stroke (width 0.05) (type solid)) (layer "F.CrtYd") (tstamp fd23f80a-03e9-4bbe-b975-74d36aba2a52))
  (fp_line (start -1.27 0) (end 0 -1.27)
    (stroke (width 0.1) (type solid)) (layer "F.Fab") (tstamp f0a8b627-8a74-4572-8348-c19a96ccd450))
  (fp_line (start -1.27 24.13) (end -1.27 0)
    (stroke (width 0.1) (type solid)) (layer "F.Fab") (tstamp 90786cd5-5edf-43e1-872b-4cbdc0902c8d))
  (fp_line (start 0 -1.27) (end 3.81 -1.27)
    (stroke (width 0.1) (type solid)) (layer "F.Fab") (tstamp a55b2fb8-c1f7-4f73-98e5-2f0322b09f49))
  (fp_line (start 3.81 -1.27) (end 3.81 24.13)
    (stroke (width 0.1) (type solid)) (layer "F.Fab") (tstamp 6e85608e-24e1-4234-aeb2-5ccbb5e09f06))
  (fp_line (start 3.81 24.13) (end -1.27 24.13)
    (stroke (width 0.1) (type solid)) (layer "F.Fab") (tstamp a5305557-0889-4cae-9398-78f28640cf1a))
  (pad "1" thru_hole rect (at 0 0) (size 1.7 1.7) (drill 1) (layers "*.Cu" "*.Mask") (tstamp 61626977-2787-431c-b5cb-ab529ae849d9))
  (pad "2" thru_hole oval (at 2.54 0) (size 1.7 1.7) (drill 1) (layers "*.Cu" "*.Mask") (tstamp 0aed385b-2997-4c20-a83b-d6ee81a66e19))
  (pad "3" thru_hole oval (at 0 2.54) (size 1.7 1.7) (drill 1) (layers "*.Cu" "*.Mask") (tstamp d19d17ad-c734-482d-a8b4-044096f9039a))
  (pad "4" thru_hole oval (at 2.54 2.54) (size 1.7 1.7) (drill 1) (layers "*.Cu" "*.Mask") (tstamp 649f1f33-2e73-451a-88cc-580750eab590))
  (pad "5" thru_hole oval (at 0 5.08) (size 1.7 1.7) (drill 1) (layers "*.Cu" "*.Mask") (tstamp 433cd427-dd81-4c78-ba14-23c8630d10a0))
  (pad "6" thru_hole oval (at 2.54 5.08) (size 1.7 1.7) (drill 1) (layers "*.Cu" "*.Mask") (tstamp d48fd711-d1eb-45cd-b069-cfe49dd386aa))
  (pad "7" thru_hole oval (at 0 7.62) (size 1.7 1.7) (drill 1) (layers "*.Cu" "*.Mask") (tstamp 0526f6be-0e18-4cbd-a962-4c3dd5302640))
  (pad "8" thru_hole oval (at 2.54 7.62) (size 1.7 1.7) (drill 1) (layers "*.Cu" "*.Mask") (tstamp 1517d43d-6eda-43d1-b7a1-0ccfaecfbaa0))
  (pad "9" thru_hole oval (at 0 10.16) (size 1.7 1.7) (drill 1) (layers "*.Cu" "*.Mask") (tstamp ac2e6509-aaa8-4dbd-8333-ab17d404c918))
  (pad "10" thru_hole oval (at 2.54 10.16) (size 1.7 1.7) (drill 1) (layers "*.Cu" "*.Mask") (tstamp aa565a46-c57b-48bf-9b6e-8ece68a0bed7))
  (pad "11" thru_hole oval (at 0 12.7) (size 1.7 1.7) (drill 1) (layers "*.Cu" "*.Mask") (tstamp 512be15b-5f69-46eb-9779-1c84341cbfb9))
  (pad "12" thru_hole oval (at 2.54 12.7) (size 1.7 1.7) (drill 1) (layers "*.Cu" "*.Mask") (tstamp e441e36d-797b-4b09-a28c-5a1406655c4e))
  (pad "13" thru_hole oval (at 0 15.24) (size 1.7 1.7) (drill 1) (layers "*.Cu" "*.Mask") (tstamp 84bc3dc4-b2a1-4e00-bcc3-c7ee0b1d20f6))
  (pad "14" thru_hole oval (at 2.54 15.24) (size 1.7 1.7) (drill 1) (layers "*.Cu" "*.Mask") (tstamp fc449338-e301-40b3-984d-4e11de243cee))
  (pad "15" thru_hole oval (at 0 17.78) (size 1.7 1.7) (drill 1) (layers "*.Cu" "*.Mask") (tstamp 00da3d48-5ea4-4159-9626-09b11d8f1f48))
  (pad "16" thru_hole oval (at 2.54 17.78) (size 1.7 1.7) (drill 1) (layers "*.Cu" "*.Mask") (tstamp 2d647f66-59ac-48a4-b7fd-e0f13f9d65e6))
  (pad "17" thru_hole oval (at 0 20.32) (size 1.7 1.7) (drill 1) (layers "*.Cu" "*.Mask") (tstamp 9a632e7e-1637-4ede-b35a-5e0b49e27245))
  (pad "18" thru_hole oval (at 2.54 20.32) (size 1.7 1.7) (drill 1) (layers "*.Cu" "*.Mask") (tstamp 7d0ce5d6-b7b5-4386-8a6b-c3dd53fd9780))
  (pad "19" thru_hole oval (at 0 22.86) (size 1.7 1.7) (drill 1) (layers "*.Cu" "*.Mask") (tstamp 4940d49e-fea4-4467-b8b4-9a1951c9a295))
  (model "${KICAD6_3DMODEL_DIR}/Connector_PinHeader_2.54mm.3dshapes/PinHeader_2x10_P2.54mm_Vertical.wrl"
    (offset (xyz 0 0 0))
    (scale (xyz 1 1 1))
    (rotate (xyz 0 0 0))
  )
)
